<svg xmlns="http://www.w3.org/2000/svg" id="aperture" width="40" height="40" viewBox="0 0 40 40">
    <defs>
        <style>
            .cls-1{fill:#fff}
        </style>
    </defs>
    <g id="Group_112" data-name="Group 112">
        <path id="Path_79" d="M35.437 7.3a.65.65 0 0 0-.079-.092A19.954 19.954 0 0 0 15.712.468c-.011 0-.022.006-.033.008A20.069 20.069 0 0 0 1.012 13.732c0 .01-.006.02-.01.029A19.951 19.951 0 0 0 4.563 32.7a.655.655 0 0 0 .079.092 19.951 19.951 0 0 0 19.688 6.73.626.626 0 0 0 .07-.016 20.069 20.069 0 0 0 14.588-13.238c0-.01.006-.02.01-.029A19.951 19.951 0 0 0 35.437 7.3zM20 1.333a18.624 18.624 0 0 1 14.051 6.4l-6.717 10.99L16.871 1.6A18.691 18.691 0 0 1 20 1.333zM26.552 20l-3.259 5.333h-6.586L13.448 20l3.259-5.333h6.585zM15.484 1.889l6.994 11.445H2.569A18.74 18.74 0 0 1 15.484 1.889zM5.056 31.174a18.625 18.625 0 0 1-2.942-16.507h13.03zM20 38.667a18.624 18.624 0 0 1-14.051-6.4l6.717-10.99L23.129 38.4a18.691 18.691 0 0 1-3.129.267zm4.516-.555l-6.994-11.445h19.909a18.74 18.74 0 0 1-12.915 11.444zm13.37-12.779h-13.03L34.944 8.827a18.625 18.625 0 0 1 2.942 16.507z" class="cls-1" data-name="Path 79"/>
    </g>
</svg>
