<svg xmlns="http://www.w3.org/2000/svg" id="Group_162" width="24" height="24" data-name="Group 162" viewBox="0 0 24 24">
    <defs>
        <style>
            .cls-1{fill:#fff;opacity:.8}.cls-2{fill:#021c4d}
        </style>
    </defs>
    <circle id="Ellipse_30" cx="12" cy="12" r="12" class="cls-1" data-name="Ellipse 30"/>
    <g id="Group_142" data-name="Group 142" transform="translate(7.754 9.465)">
        <g id="right-arrow" transform="translate(6.284)">
            <g id="Group_141" data-name="Group 141">
                <path id="Path_85" d="M104.287 2.266L102.1.079a.269.269 0 0 0-.38 0l-.161.161a.269.269 0 0 0 0 .38l1.841 1.837-1.843 1.843a.27.27 0 0 0 0 .38l.161.161a.269.269 0 0 0 .38 0l2.19-2.189a.271.271 0 0 0 0-.382z" class="cls-2" data-name="Path 85" transform="translate(-101.478)"/>
            </g>
        </g>
        <g id="right-arrow-2" data-name="right-arrow" transform="rotate(180 1.444 2.458)">
            <g id="Group_141-2" data-name="Group 141">
                <path id="Path_85-2" d="M2.809 2.266L.622.079a.269.269 0 0 0-.38 0L.081.24a.269.269 0 0 0 0 .38l1.836 1.837L.079 4.3a.27.27 0 0 0 0 .38l.161.161a.269.269 0 0 0 .38 0l2.19-2.189a.271.271 0 0 0 0-.382z" class="cls-2" data-name="Path 85"/>
            </g>
        </g>
    </g>
</svg>
