<svg xmlns="http://www.w3.org/2000/svg" width="40" height="40.123" viewBox="0 0 40 40.123">
    <defs>
        <style>
            .cls-1{fill:#fff}
        </style>
    </defs>
    <g id="download" transform="translate(-.75)">
        <g id="Group_115" data-name="Group 115" transform="translate(.75)">
            <path id="Path_80" d="M162.972 0a1 1 0 0 0-1 1.012v27.123l-4.6-4.6a1.006 1.006 0 1 0-1.423 1.423l6.318 6.318a1 1 0 0 0 .716.3 1.016 1.016 0 0 0 .716-.3l6.318-6.318a1.006 1.006 0 0 0-1.423-1.423l-4.6 4.6V1.012A1.024 1.024 0 0 0 162.972 0z" class="cls-1" data-name="Path 80" transform="translate(-142.972)"/>
            <path id="Path_81" d="M39.741 464.7H1.759a1.012 1.012 0 0 0 0 2.024h37.982a1.012 1.012 0 0 0 0-2.024z" class="cls-1" data-name="Path 81" transform="translate(-.75 -426.601)"/>
        </g>
    </g>
</svg>
